Tue Jan  2 16:43:07 PST 2018
Preloading tcmalloc_minimal.so
Py:Athena            INFO including file "AthenaCommon/Preparation.py"
Py:Athena            INFO using release [WorkDir-22.0.0] [x86_64-slc6-gcc62-dbg] [dev/3227fd4b6f] -- built on [2018-01-02T1642]
Py:Athena            INFO including file "AthenaCommon/Atlas.UnixStandardJob.py"
Py:Athena            INFO executing ROOT6Setup
Py:Athena            INFO including file "AthenaCommon/Execution.py"
Py:Athena            INFO including file "DataModelRunTests/xAODTestSymlinks1_jo.py"
Py:ConfigurableDb    INFO Read module info for 5430 configurables from 7 genConfDb files
Py:ConfigurableDb    INFO No duplicates have been found: that's good !
Py:Athena            INFO including file "AthenaCommon/runbatch.py"
[?1034hApplicationMgr       INFO Updating Gaudi::PluginService::SetDebug(level) to level= 'PluginDebugLevel':0
ApplicationMgr    SUCCESS 
====================================================================================================================================
                                                   Welcome to ApplicationMgr (GaudiCoreSvc v30r1)
                                          running on zeus on Tue Jan  2 16:43:19 2018
====================================================================================================================================
ApplicationMgr       INFO Successfully loaded modules : AthenaServices
ApplicationMgr       INFO Application Manager Configured successfully
ApplicationMgr       INFO Updating Gaudi::PluginService::SetDebug(level) to level= 'PluginDebugLevel':0
StatusCodeSvc        INFO initialize
AthDictLoaderSvc     INFO in initialize...
AthDictLoaderSvc     INFO acquired Dso-registry
ClassIDSvc           INFO  getRegistryEntries: read 2318 CLIDRegistry entries for module ALL
ChronoStatSvc        INFO  Number of skipped events for MemStat-1
CoreDumpSvc          INFO install f-a-t-a-l handler... (flag = -1)
CoreDumpSvc          INFO Handling signals: 11(Segmentation fault) 7(Bus error) 4(Illegal instruction) 8(Floating point exception) 
AthenaEventLoopMgr   INFO Initializing AthenaEventLoopMgr - package version AthenaServices-00-00-00
ClassIDSvc           INFO  getRegistryEntries: read 6620 CLIDRegistry entries for module ALL
ClassIDSvc           INFO  getRegistryEntries: read 61 CLIDRegistry entries for module ALL
MetaDataSvc          INFO Initializing MetaDataSvc - package version AthenaServices-00-00-00
AthenaPoolCnvSvc     INFO Initializing AthenaPoolCnvSvc - package version AthenaPoolCnvSvc-00-00-00
PoolSvc              INFO io_register[PoolSvc](xmlcatalog_file:PoolFileCatalog.xml) [ok]
PoolSvc              INFO Set connectionsvc retry/timeout/IDLE timeout to  'ConnectionRetrialPeriod':300/ 'ConnectionRetrialTimeOut':3600/ 'ConnectionTimeOut':5 seconds with connection cleanup disabled
PoolSvc              INFO Frontier compression level set to 5
DBReplicaSvc         INFO Frontier server at (serverurl=http://atlasfrontier-ai.cern.ch:8000/atlr)(serverurl=http://lcgft-atlas.gridpp.rl.ac.uk:3128/frontierATLAS)(proxyurl=http://msquid01-ib.nersc.gov:3128)(proxyurl=http://msquid02-ib.nersc.gov:3128) will be considered for COOL data
DBReplicaSvc         INFO Read replica configuration from /bld2/build/v30r1.002/build/install/Athena/22.0.0/InstallArea/x86_64-slc6-gcc62-dbg/share/dbreplica.config
DBReplicaSvc         INFO No specific match for domain found - use default fallback
DBReplicaSvc         INFO Total of 2 servers found for host zeus [ATLF atlas_dd ]
PoolSvc              INFO Successfully setup replica sorting algorithm
PoolSvc              INFO Setting up APR FileCatalog and Streams
PoolSvc              INFO POOL WriteCatalog is xmlcatalog_file:PoolFileCatalog.xml
DbSession            INFO     Open     DbSession    
Domain[ROOT_All]     INFO >   Access   DbDomain     READ      [ROOT_All] 
ClassIDSvc           INFO  getRegistryEntries: read 902 CLIDRegistry entries for module ALL
xAODTestAlg       WARNING Implicit circular data dependency detected for id  ( 'SG::AuxElement' , 'StoreGateSvc+cinfo2' ) 
HistogramPersis...WARNING Histograms saving not required.
EventSelector        INFO  Enter McEventSelector Initialization 
AthenaEventLoopMgr   INFO Setup EventSelector service EventSelector
ApplicationMgr       INFO Application Manager Initialized successfully
ApplicationMgr       INFO Application Manager Started successfully
EventPersistenc...   INFO Added successfully Conversion service:McCnvSvc
ClassIDSvc           INFO  getRegistryEntries: read 108 CLIDRegistry entries for module ALL
AthenaEventLoopMgr   INFO   ===>>>  start of run 0    <<<===
AthenaEventLoopMgr   INFO   ===>>>  start processing event #0, run #0 0 events processed so far  <<<===
xAODTestReadSym...   INFO C (as AuxElement): 1000; S 0
xAODTestAlg.xAO...   INFO From tool: C (as AuxElement): 1000; S 0
AthenaEventLoopMgr   INFO   ===>>>  done processing event #0, run #0 1 events processed so far  <<<===
AthenaEventLoopMgr   INFO   ===>>>  start processing event #1, run #0 1 events processed so far  <<<===
xAODTestReadSym...   INFO C (as AuxElement): 2000; S 100
xAODTestAlg.xAO...   INFO From tool: C (as AuxElement): 2000; S 100
AthenaEventLoopMgr   INFO   ===>>>  done processing event #1, run #0 2 events processed so far  <<<===
AthenaEventLoopMgr   INFO   ===>>>  start processing event #2, run #0 2 events processed so far  <<<===
xAODTestReadSym...   INFO C (as AuxElement): 3000; S 200
xAODTestAlg.xAO...   INFO From tool: C (as AuxElement): 3000; S 200
AthenaEventLoopMgr   INFO   ===>>>  done processing event #2, run #0 3 events processed so far  <<<===
AthenaEventLoopMgr   INFO   ===>>>  start processing event #3, run #0 3 events processed so far  <<<===
xAODTestReadSym...   INFO C (as AuxElement): 4000; S 300
xAODTestAlg.xAO...   INFO From tool: C (as AuxElement): 4000; S 300
AthenaEventLoopMgr   INFO   ===>>>  done processing event #3, run #0 4 events processed so far  <<<===
AthenaEventLoopMgr   INFO   ===>>>  start processing event #4, run #0 4 events processed so far  <<<===
xAODTestReadSym...   INFO C (as AuxElement): 5000; S 400
xAODTestAlg.xAO...   INFO From tool: C (as AuxElement): 5000; S 400
AthenaEventLoopMgr   INFO   ===>>>  done processing event #4, run #0 5 events processed so far  <<<===
AthenaEventLoopMgr   INFO   ===>>>  start processing event #5, run #0 5 events processed so far  <<<===
xAODTestReadSym...   INFO C (as AuxElement): 6000; S 500
xAODTestAlg.xAO...   INFO From tool: C (as AuxElement): 6000; S 500
AthenaEventLoopMgr   INFO   ===>>>  done processing event #5, run #0 6 events processed so far  <<<===
AthenaEventLoopMgr   INFO   ===>>>  start processing event #6, run #0 6 events processed so far  <<<===
xAODTestReadSym...   INFO C (as AuxElement): 7000; S 600
xAODTestAlg.xAO...   INFO From tool: C (as AuxElement): 7000; S 600
AthenaEventLoopMgr   INFO   ===>>>  done processing event #6, run #0 7 events processed so far  <<<===
AthenaEventLoopMgr   INFO   ===>>>  start processing event #7, run #0 7 events processed so far  <<<===
xAODTestReadSym...   INFO C (as AuxElement): 8000; S 700
xAODTestAlg.xAO...   INFO From tool: C (as AuxElement): 8000; S 700
AthenaEventLoopMgr   INFO   ===>>>  done processing event #7, run #0 8 events processed so far  <<<===
AthenaEventLoopMgr   INFO   ===>>>  start processing event #8, run #0 8 events processed so far  <<<===
xAODTestReadSym...   INFO C (as AuxElement): 9000; S 800
xAODTestAlg.xAO...   INFO From tool: C (as AuxElement): 9000; S 800
AthenaEventLoopMgr   INFO   ===>>>  done processing event #8, run #0 9 events processed so far  <<<===
AthenaEventLoopMgr   INFO   ===>>>  start processing event #9, run #0 9 events processed so far  <<<===
xAODTestReadSym...   INFO C (as AuxElement): 10000; S 900
xAODTestAlg.xAO...   INFO From tool: C (as AuxElement): 10000; S 900
AthenaEventLoopMgr   INFO   ===>>>  done processing event #9, run #0 10 events processed so far  <<<===
AthenaEventLoopMgr   INFO   ===>>>  start processing event #10, run #0 10 events processed so far  <<<===
xAODTestReadSym...   INFO C (as AuxElement): 11000; S 1000
xAODTestAlg.xAO...   INFO From tool: C (as AuxElement): 11000; S 1000
AthenaEventLoopMgr   INFO   ===>>>  done processing event #10, run #0 11 events processed so far  <<<===
AthenaEventLoopMgr   INFO   ===>>>  start processing event #11, run #0 11 events processed so far  <<<===
xAODTestReadSym...   INFO C (as AuxElement): 12000; S 1100
xAODTestAlg.xAO...   INFO From tool: C (as AuxElement): 12000; S 1100
AthenaEventLoopMgr   INFO   ===>>>  done processing event #11, run #0 12 events processed so far  <<<===
AthenaEventLoopMgr   INFO   ===>>>  start processing event #12, run #0 12 events processed so far  <<<===
xAODTestReadSym...   INFO C (as AuxElement): 13000; S 1200
xAODTestAlg.xAO...   INFO From tool: C (as AuxElement): 13000; S 1200
AthenaEventLoopMgr   INFO   ===>>>  done processing event #12, run #0 13 events processed so far  <<<===
AthenaEventLoopMgr   INFO   ===>>>  start processing event #13, run #0 13 events processed so far  <<<===
xAODTestReadSym...   INFO C (as AuxElement): 14000; S 1300
xAODTestAlg.xAO...   INFO From tool: C (as AuxElement): 14000; S 1300
AthenaEventLoopMgr   INFO   ===>>>  done processing event #13, run #0 14 events processed so far  <<<===
AthenaEventLoopMgr   INFO   ===>>>  start processing event #14, run #0 14 events processed so far  <<<===
xAODTestReadSym...   INFO C (as AuxElement): 15000; S 1400
xAODTestAlg.xAO...   INFO From tool: C (as AuxElement): 15000; S 1400
AthenaEventLoopMgr   INFO   ===>>>  done processing event #14, run #0 15 events processed so far  <<<===
AthenaEventLoopMgr   INFO   ===>>>  start processing event #15, run #0 15 events processed so far  <<<===
xAODTestReadSym...   INFO C (as AuxElement): 16000; S 1500
xAODTestAlg.xAO...   INFO From tool: C (as AuxElement): 16000; S 1500
AthenaEventLoopMgr   INFO   ===>>>  done processing event #15, run #0 16 events processed so far  <<<===
AthenaEventLoopMgr   INFO   ===>>>  start processing event #16, run #0 16 events processed so far  <<<===
xAODTestReadSym...   INFO C (as AuxElement): 17000; S 1600
xAODTestAlg.xAO...   INFO From tool: C (as AuxElement): 17000; S 1600
AthenaEventLoopMgr   INFO   ===>>>  done processing event #16, run #0 17 events processed so far  <<<===
AthenaEventLoopMgr   INFO   ===>>>  start processing event #17, run #0 17 events processed so far  <<<===
xAODTestReadSym...   INFO C (as AuxElement): 18000; S 1700
xAODTestAlg.xAO...   INFO From tool: C (as AuxElement): 18000; S 1700
AthenaEventLoopMgr   INFO   ===>>>  done processing event #17, run #0 18 events processed so far  <<<===
AthenaEventLoopMgr   INFO   ===>>>  start processing event #18, run #0 18 events processed so far  <<<===
xAODTestReadSym...   INFO C (as AuxElement): 19000; S 1800
xAODTestAlg.xAO...   INFO From tool: C (as AuxElement): 19000; S 1800
AthenaEventLoopMgr   INFO   ===>>>  done processing event #18, run #0 19 events processed so far  <<<===
AthenaEventLoopMgr   INFO   ===>>>  start processing event #19, run #0 19 events processed so far  <<<===
xAODTestReadSym...   INFO C (as AuxElement): 20000; S 1900
xAODTestAlg.xAO...   INFO From tool: C (as AuxElement): 20000; S 1900
AthenaEventLoopMgr   INFO   ===>>>  done processing event #19, run #0 20 events processed so far  <<<===
Domain[ROOT_All]     INFO >   Deaccess DbDomain     READ      [ROOT_All] 
ApplicationMgr       INFO Application Manager Stopped successfully
IncidentProcAlg1     INFO Finalize
IncidentProcAlg2     INFO Finalize
EventSelector        INFO finalize
AthDictLoaderSvc     INFO in finalize...
ToolSvc              INFO Removing all tools created by ToolSvc
ChronoStatSvc.f...   INFO  Service finalized successfully 
ApplicationMgr       INFO Application Manager Finalized successfully
ApplicationMgr       INFO Application Manager Terminated successfully
Py:Athena            INFO leaving with code 0: "successful run"
